…
> # baked <- bake(prep, new_data = trainData)
> 
> #####
> 
> ## Recipe with Target Encoding
> 
> target_recipe <- recipe(ACTION ~ ., data = trainData) %>%
+   step_mutate_at(all_numeric_predictors(), fn = factor) %>% 
+   step_other(all_factor_predictors(), threshold = 0.001) %>%
+   step_lencode_mixed(all_factor_predictors(), outcome = vars(ACTION)) %>%
+   step_normalize(all_factor_predictors())
> 
> target_prep <- prep(target_recipe)
> bake(target_prep, new_data = trainData)
# A tibble: 32,769 × 10
   RESOURCE MGR_ID ROLE_ROLLUP_1 ROLE_ROLLUP_2 ROLE_DEPTNAME ROLE_TITLE
      <dbl>  <dbl>         <dbl>         <dbl>         <dbl>      <dbl>
 1    -2.72  -5.33         -2.93         -3.08         -3.18      -3.40
 2    -2.72  -2.76         -2.93         -3.43         -2.19      -3.27
 3    -2.72  -2.76         -2.46         -2.47         -2.50      -2.10
 4    -2.72  -5.39         -2.93         -3.43         -4.19      -2.45
 5    -2.72  -2.76         -2.62         -2.07         -1.36      -2.05
 6    -2.72  -2.76         -2.67         -2.67         -2.13      -2.53
 7    -3.03  -2.76         -2.93         -3.43         -2.41      -2.60
 8    -2.72  -2.76         -2.93         -2.56         -3.26      -2.75
 9    -2.72  -2.76         -2.93         -3.28         -3.10      -2.38
10    -2.72  -2.76         -1.51         -1.53         -2.72      -2.10
# ℹ 32,759 more rows
# ℹ 4 more variables: ROLE_FAMILY_DESC <dbl>, ROLE_FAMILY <dbl>,
#   ROLE_CODE <dbl>, ACTION <fct>
…
